10 25

0.1824751049716305 0.05478385656460819 0.10804515713232565 0.06645120454147323 0.011876676145088066 0.02725457434314114 0.10633986004515121 0.19837717249049028 0.12289706873999867 0.12149932502609305

3 9 4 8 2 5 4 10 10 9 5 5 10 9 2 7 2 7 1 7 7 9 9 8 1
9 6 10 6 8 7 6 6 4 10 8 10 2 9 7 5 4 2 8 5 9 9 10 1 5
6 10 6 9 9 8 4 2 9 10 3 4 10 7 7 9 8 10 9 5 3 6 8 9 5
8 1 6 7 1 4 9 9 8 6 10 10 7 1 4 7 8 9 7 2 1 8 3 6 4
9 4 8 3 6 5 2 10 4 6 10 8 10 9 10 2 5 9 9 7 6 9 10 9 2
1 10 7 6 5 2 6 7 5 1 6 8 9 1 2 4 1 3 6 4 6 10 5 6 7
7 4 4 6 9 8 2 6 8 2 2 10 9 6 5 3 3 9 7 8 3 10 10 6 4
2 6 6 4 8 3 4 7 1 10 7 8 5 8 5 9 9 7 3 4 4 9 2 3 4
1 3 10 5 9 5 6 2 9 7 2 8 2 5 7 5 2 9 1 2 7 10 7 5 2
3 3 4 2 3 2 4 6 4 8 1 4 3 2 5 6 8 9 9 6 6 10 2 1 10

8 1 1 10 3 5 9 3 3 10 10 7 7 5 10 9 1 6 3 6 10 8 10 3 3