15 50

0.12036775305286353 0.11176270078183628 0.026697935830730556 0.07344906576340349 0.02796752764066311 0.08930424856531301 0.09185348279432376 0.02804834296552833 0.14447298997612412 0.10854937804593792 0.06282604758399273 0.03792657661545409 0.01329353853027519 0.021837381642352317 0.04164303021120144

3 1 10 3 8 2 7 6 9 6 8 9 3 1 4 5 3 4 2 5 9 9 10 6 1 7 2 9 1 10 7 3 1 7 6 2 5 1 8 5 4 2 2 6 5 8 9 5 8 2
6 8 9 5 9 9 6 4 3 3 9 4 5 10 5 2 9 10 10 5 7 6 6 9 2 10 6 4 3 3 3 5 8 3 2 9 3 6 8 2 7 4 1 8 9 10 10 4 3 2
2 1 5 1 4 3 8 1 4 10 7 4 8 10 8 1 10 8 4 2 9 3 7 7 6 4 6 1 1 6 4 3 4 1 5 4 2 3 9 7 7 4 1 6 2 3 4 10 4 9
5 6 1 3 5 8 1 6 7 7 7 10 6 2 2 8 6 10 3 9 4 3 1 2 8 10 4 4 2 9 1 10 8 6 7 6 8 8 8 1 5 1 5 10 3 4 10 3 7 1
5 5 5 10 6 6 1 6 6 6 3 2 1 4 1 6 9 8 7 5 2 7 5 7 3 5 9 7 5 10 3 9 4 5 9 6 4 2 9 9 6 10 9 3 10 10 3 6 2 5
6 9 6 2 5 6 4 3 2 8 8 4 6 10 9 1 8 2 9 4 5 2 5 9 9 2 7 8 6 6 8 10 10 6 6 1 4 3 4 6 10 4 6 6 6 4 6 4 1 1
1 4 6 3 9 2 5 7 7 7 6 6 1 7 3 10 8 3 6 10 5 4 8 10 9 4 6 7 6 1 4 2 9 6 5 10 5 10 9 9 10 2 2 4 6 7 5 2 3 7
2 7 7 10 10 3 1 3 8 5 7 6 10 4 5 2 7 2 9 2 10 8 1 7 7 7 9 10 3 6 2 2 8 7 9 6 9 4 3 4 9 3 1 3 9 8 4 8 3 6
9 4 6 7 10 1 9 5 3 6 9 4 7 10 5 2 10 2 5 2 6 6 10 3 5 4 7 10 1 10 6 4 6 2 8 1 8 7 4 10 3 9 2 8 3 7 3 8 6 7
5 9 6 1 7 5 10 9 4 9 8 2 7 5 8 1 4 8 4 8 1 8 9 9 4 5 2 8 3 5 8 5 1 6 4 1 3 6 4 5 4 6 1 8 7 7 2 2 3 1
10 6 2 7 7 8 1 5 7 2 9 3 6 7 7 8 8 4 6 10 9 2 7 6 3 4 7 9 2 5 3 2 10 3 5 2 9 4 7 7 1 6 2 8 10 1 5 5 10 9
7 2 10 4 3 8 9 5 1 9 2 1 4 9 9 9 7 9 4 2 6 10 10 3 5 4 5 3 5 10 4 6 5 1 3 10 6 8 9 7 6 10 4 5 4 2 2 7 4 10
9 9 1 3 7 5 1 10 5 1 9 6 10 5 9 9 9 10 8 5 10 10 4 3 8 6 7 1 9 9 1 3 8 5 2 7 4 3 5 2 7 1 9 10 10 9 8 10 8 9
7 2 9 5 6 4 9 6 3 7 3 7 6 4 9 2 6 8 1 6 4 8 1 10 9 9 9 9 9 9 8 7 4 8 8 1 2 5 6 1 10 4 2 6 10 7 8 1 9 5
7 8 7 5 3 4 5 10 6 4 3 2 2 6 5 10 3 2 9 9 10 1 10 7 7 3 1 7 2 1 1 8 5 2 10 9 3 2 9 6 10 9 4 9 9 4 9 10 1 9

10 6 10 3 7 5 7 9 8 8 10 4 1 5 9 7 2 3 5 10 5 5 1 8 5 8 1 3 8 5 5 7 10 8 8 1 2 3 2 1 10 2 10 1 9 10 6 5 7 5